Introduction to sweep
…
Forecasting Sales of Beer, Wine, and Distilled Alcohol Beverages

We’ll use the tidyquant package to get the US alcohol sales, which comes from the FRED data base (the origin is the US Bureau of the Census, one of the 80+ data sources FRED connects to). The FRED code is “S4248SM144NCEN” and the data set can be found here.

alcohol_sales_tbl <- tq_get("S4248SM144NCEN", 
                            get  = "economic.data", 
                            from = "2007-01-01",
                            to   = "2016-12-31")
alcohol_sales_tbl

## # A tibble: 120 x 2
##    date       price
##    <date>     <int>
##  1 2007-01-01  6627
##  2 2007-02-01  6743
##  3 2007-03-01  8195
##  4 2007-04-01  7828
##  5 2007-05-01  9570
##  6 2007-06-01  9484
##  7 2007-07-01  8608
##  8 2007-08-01  9543
##  9 2007-09-01  8123
## 10 2007-10-01  9649
## # ... with 110 more rows
…
## # A tibble: 1 x 12
##   model.desc  sigma logLik   AIC   BIC    ME  RMSE   MAE    MPE  MAPE
##   <chr>       <dbl>  <dbl> <dbl> <dbl> <dbl> <dbl> <dbl>  <dbl> <dbl>
## 1 ETS(M,A,M) 0.0455  -1012  2059  2106 -53.6   430   363 -0.695  3.65
## # ... with 2 more variables: MASE <dbl>, ACF1 <dbl>

sw_augment

sw_augment() returns the actual, fitted and residual values.

augment_fit_ets <- sw_augment(fit_ets)
augment_fit_ets

## # A tibble: 120 x 4
##    index         .actual .fitted     .resid
##    <S3: yearmon>   <dbl>   <dbl>      <dbl>
##  1 Jan 2007         6627    6411  0.0337   
##  2 Feb 2007         6743    7115 -0.0523   
##  3 Mar 2007         8195    8322 -0.0153   
##  4 Apr 2007         7828    8298 -0.0566   
##  5 May 2007         9570    9044  0.0582   
##  6 Jun 2007         9484    9544 -0.00628  
##  7 Jul 2007         8608    8607  0.0000959
##  8 Aug 2007         9543    8992  0.0613   
##  9 Sep 2007         8123    8693 -0.0656   
## 10 Oct 2007         9649    8978  0.0748   
## # ... with 110 more rows
…
sw_tidy_decomp

sw_tidy_decomp() returns the decomposition of the ETS model.

decomp_fit_ets <- sw_tidy_decomp(fit_ets)
decomp_fit_ets 

## # A tibble: 121 x 5
##    index         observed level slope season
##    <S3: yearmon>    <dbl> <dbl> <dbl>  <dbl>
##  1 Dec 2006            NA  8389  38.9  1.18 
##  2 Jan 2007          6627  8478  39.0  0.761
##  3 Feb 2007          6743  8439  38.8  0.835
##  4 Mar 2007          8195  8455  38.8  0.982
##  5 Apr 2007          7828  8409  38.6  0.977
##  6 May 2007          9570  8534  38.8  1.07 
##  7 Jun 2007          9484  8563  38.7  1.11 
##  8 Jul 2007          8608  8602  38.7  1.00 
##  9 Aug 2007          9543  8734  38.9  1.04 
## 10 Sep 2007          8123  8672  38.7  0.991
## # ... with 111 more rows
…
Step 3: Forecasting the model

Next we forecast the ETS model using the forecast() function. The returned forecast object isn’t in a “tidy” format (i.e. data frame). This is where the sw_sweep() function helps.

fcast_ets <- fit_ets %>%
    forecast(h = 12) 

Step 4: Tidy the forecast object

We’ll use the sw_sweep() function to coerce a forecast into a “tidy” data frame. The sw_sweep() function then coerces the forecast object into a tibble that can be sent to ggplot for visualization. Let’s inspect the result.

sw_sweep(fcast_ets, fitted = TRUE)

## # A tibble: 252 x 7
##    index         key    price lo.80 lo.95 hi.80 hi.95
##    <S3: yearmon> <chr>  <dbl> <dbl> <dbl> <dbl> <dbl>
##  1 Jan 2007      actual  6627    NA    NA    NA    NA
##  2 Feb 2007      actual  6743    NA    NA    NA    NA
##  3 Mar 2007      actual  8195    NA    NA    NA    NA
##  4 Apr 2007      actual  7828    NA    NA    NA    NA
##  5 May 2007      actual  9570    NA    NA    NA    NA
##  6 Jun 2007      actual  9484    NA    NA    NA    NA
##  7 Jul 2007      actual  8608    NA    NA    NA    NA
##  8 Aug 2007      actual  9543    NA    NA    NA    NA
##  9 Sep 2007      actual  8123    NA    NA    NA    NA
## 10 Oct 2007      actual  9649    NA    NA    NA    NA
## # ... with 242 more rows
…
