Forecasting Time Series Groups in the tidyverse
…
Before we get started, load the following packages.

library(forecast)
library(tidyquant)
library(timetk)
library(sweep)

Bike Sales

We’ll use the bike sales data set, bike_sales, provided with the sweep package for this tutorial. The bike_sales data set is a fictional daily order history that spans 2011 through 2015. It simulates a sales database that is typical of a business. The customers are the “bike shops” and the products are the “models”.

bike_sales

## # A tibble: 15,644 x 17
##    order.date order.id order.line quantity price price.ext customer.id
##        <date>    <dbl>      <int>    <dbl> <dbl>     <dbl>       <dbl>
##  1 2011-01-07        1          1        1  6070      6070           2
##  2 2011-01-07        1          2        1  5970      5970           2
##  3 2011-01-10        2          1        1  2770      2770          10
##  4 2011-01-10        2          2        1  5970      5970          10
##  5 2011-01-10        3          1        1 10660     10660           6
##  6 2011-01-10        3          2        1  3200      3200           6
##  7 2011-01-10        3          3        1 12790     12790           6
##  8 2011-01-10        3          4        1  5330      5330           6
##  9 2011-01-10        3          5        1  1570      1570           6
## 10 2011-01-11        4          1        1  4800      4800          22
## # ... with 15,634 more rows, and 10 more variables: bikeshop.name <chr>,
## #   bikeshop.city <chr>, bikeshop.state <chr>, latitude <dbl>,
## #   longitude <dbl>, product.id <dbl>, model <chr>,
## #   category.primary <chr>, category.secondary <chr>, frame <chr>

We’ll analyse the monthly sales trends for the bicycle manufacturer. Let’s transform the data set by aggregating by month.

bike_sales_monthly <- bike_sales %>%
    mutate(month = month(order.date, label = TRUE),
           year  = year(order.date)) %>%
    group_by(year, month) %>%
    summarise(total.qty = sum(quantity)) 
bike_sales_monthly

## # A tibble: 60 x 3
## # Groups:   year [?]
##     year month total.qty
##    <dbl> <ord>     <dbl>
##  1  2011   Jan       440
##  2  2011   Feb      2017
##  3  2011   Mar      1584
##  4  2011   Apr      4478
##  5  2011   May      4112
##  6  2011   Jun      4251
##  7  2011   Jul      1550
##  8  2011   Aug      1470
##  9  2011   Sep       975
## 10  2011   Oct       697
## # ... with 50 more rows
…
Suppose Manufacturing wants a more granular forecast because the bike components are related to the secondary category. In the next section we discuss how sweep can help to perform a forecast on each sub-category.

Performing Forecasts on Groups

First, we need to get the data organized into groups by month of the year. We’ll create a new “order.month” date using zoo::as.yearmon() that captures the year and month information from the “order.date” and then passing this to lubridate::as_date() to convert to date format.

monthly_qty_by_cat2 <- bike_sales %>%
    mutate(order.month = as_date(as.yearmon(order.date))) %>%
    group_by(category.secondary, order.month) %>%
    summarise(total.qty = sum(quantity))
monthly_qty_by_cat2

## # A tibble: 538 x 3
## # Groups:   category.secondary [?]
##    category.secondary order.month total.qty
##                 <chr>      <date>     <dbl>
##  1 Cross Country Race  2011-01-01       122
##  2 Cross Country Race  2011-02-01       489
##  3 Cross Country Race  2011-03-01       505
##  4 Cross Country Race  2011-04-01       343
##  5 Cross Country Race  2011-05-01       263
##  6 Cross Country Race  2011-06-01       735
##  7 Cross Country Race  2011-07-01       183
##  8 Cross Country Race  2011-08-01        66
##  9 Cross Country Race  2011-09-01        97
## 10 Cross Country Race  2011-10-01       189
## # ... with 528 more rows
…
sw_augment

The augmented fitted and residual values can be achieved in much the same manner. This returns nine groups data. Note that we pass timetk_idx = TRUE to return the date format times as opposed to the regular (yearmon or numeric) time series.

augment_fit_ets <- monthly_qty_by_cat2_fit %>%
    mutate(augment = map(fit.ets, sw_augment, timetk_idx = TRUE, rename_index = "date")) %>%
    unnest(augment, .drop = TRUE)

augment_fit_ets

## # A tibble: 538 x 5
##    category.secondary       date .actual  .fitted     .resid
##                 <chr>     <date>   <dbl>    <dbl>      <dbl>
##  1 Cross Country Race 2011-01-01     122 356.8830 -0.6581513
##  2 Cross Country Race 2011-02-01     489 209.5115  1.3340009
##  3 Cross Country Race 2011-03-01     505 422.2056  0.1960997
##  4 Cross Country Race 2011-04-01     343 173.0947  0.9815739
##  5 Cross Country Race 2011-05-01     263 594.3634 -0.5575098
##  6 Cross Country Race 2011-06-01     735 315.4110  1.3302927
##  7 Cross Country Race 2011-07-01     183 634.5486 -0.7116060
##  8 Cross Country Race 2011-08-01      66 197.8604 -0.6664315
##  9 Cross Country Race 2011-09-01      97 342.9870 -0.7171904
## 10 Cross Country Race 2011-10-01     189 105.4309  0.7926432
## # ... with 528 more rows
…
sw_tidy_decomp

We can create decompositions using the same procedure with sw_tidy_decomp() and the mutate and map combo.

monthly_qty_by_cat2_fit %>%
    mutate(decomp = map(fit.ets, sw_tidy_decomp, timetk_idx = TRUE, rename_index = "date")) %>%
    unnest(decomp)

## # A tibble: 538 x 6
##    category.secondary       date observed    level    season slope
##                 <chr>     <date>    <dbl>    <dbl>     <dbl> <dbl>
##  1 Cross Country Race 2011-01-01      122 297.1262 1.1650304    NA
##  2 Cross Country Race 2011-02-01      489 315.1810 0.7052205    NA
##  3 Cross Country Race 2011-03-01      505 317.9964 1.3395918    NA
##  4 Cross Country Race 2011-04-01      343 332.2144 0.5443828    NA
##  5 Cross Country Race 2011-05-01      263 323.7779 1.7889958    NA
##  6 Cross Country Race 2011-06-01      735 343.3974 0.9742886    NA
##  7 Cross Country Race 2011-07-01      183 332.2665 1.8477229    NA
##  8 Cross Country Race 2011-08-01       66 322.1801 0.5954473    NA
##  9 Cross Country Race 2011-09-01       97 311.6549 1.0645052    NA
## 10 Cross Country Race 2011-10-01      189 322.9074 0.3383206    NA
## # ... with 528 more rows
…
Step 4: Tidy the forecast

Next, we can apply sw_sweep to get the forecast in a nice “tidy” data frame. We use the argument fitted = FALSE to remove the fitted values from the forecast (leave off if fitted values are desired). We set timetk_idx = TRUE to use dates instead of numeric values for the index. We’ll use unnest() to drop the left over list-columns and return an unnested data frame.

monthly_qty_by_cat2_fcast_tidy <- monthly_qty_by_cat2_fcast %>%
    mutate(sweep = map(fcast.ets, sw_sweep, fitted = FALSE, timetk_idx = TRUE)) %>%
    unnest(sweep)
monthly_qty_by_cat2_fcast_tidy

## # A tibble: 646 x 8
##    category.secondary      index    key total.qty lo.80 lo.95 hi.80 hi.95
##                 <chr>     <date>  <chr>     <dbl> <dbl> <dbl> <dbl> <dbl>
##  1 Cross Country Race 2011-01-01 actual       122    NA    NA    NA    NA
##  2 Cross Country Race 2011-02-01 actual       489    NA    NA    NA    NA
##  3 Cross Country Race 2011-03-01 actual       505    NA    NA    NA    NA
##  4 Cross Country Race 2011-04-01 actual       343    NA    NA    NA    NA
##  5 Cross Country Race 2011-05-01 actual       263    NA    NA    NA    NA
##  6 Cross Country Race 2011-06-01 actual       735    NA    NA    NA    NA
##  7 Cross Country Race 2011-07-01 actual       183    NA    NA    NA    NA
##  8 Cross Country Race 2011-08-01 actual        66    NA    NA    NA    NA
##  9 Cross Country Race 2011-09-01 actual        97    NA    NA    NA    NA
## 10 Cross Country Race 2011-10-01 actual       189    NA    NA    NA    NA
## # ... with 636 more rows
…
