Forecasting Using Multiple Models
…
Forecasting Gasoline Prices

To start, let’s get some data from the FRED data base using tidyquant. We’ll use tq_get() to retrieve the Gasoline Prices from 1990 through today (2017-07-03).

gas_prices_monthly_raw <- tq_get(
    x    = "GASREGCOVM", 
    get  = "economic.data", 
    from = "1990-01-01", 
    to   = "2016-12-31") 
gas_prices_monthly_raw

## # A tibble: 316 x 2
##          date price
##        <date> <dbl>
##  1 1990-09-01 1.258
##  2 1990-10-01 1.335
##  3 1990-11-01 1.324
##  4 1990-12-01    NA
##  5 1991-01-01    NA
##  6 1991-02-01 1.094
##  7 1991-03-01 1.040
##  8 1991-04-01 1.076
##  9 1991-05-01 1.126
## 10 1991-06-01 1.128
## # ... with 306 more rows
…
Monthly periodicity might be a bit granular for model fitting. We can easily switch periodicity to quarterly using tq_transmute() from the tidyquant package along with the periodicity aggregation function to.period from the xts package. We’ll convert the date to yearqtr class which is regularized.

gas_prices_quarterly <- gas_prices_monthly %>%
    tq_transmute(mutate_fun = to.period, period = "quarters") 
gas_prices_quarterly

## # A tibble: 106 x 2
##          date price
##        <date> <dbl>
##  1 1990-09-01 1.258
##  2 1990-12-01 1.324
##  3 1991-03-01 1.040
##  4 1991-06-01 1.128
##  5 1991-09-01 1.109
##  6 1991-12-01 1.076
##  7 1992-03-01 1.013
##  8 1992-06-01 1.145
##  9 1992-09-01 1.122
## 10 1992-12-01 1.078
## # ... with 96 more rows
…
## # A tibble: 3 x 5
##            f     params         fit          fcast              sweep
##        <chr>     <list>      <list>         <list>             <list>
## 1 auto.arima <list [1]> <S3: ARIMA> <S3: forecast> <tibble [112 x 7]>
## 2        ets <list [2]>   <S3: ets> <S3: forecast> <tibble [112 x 7]>
## 3       bats <list [1]>  <S3: bats> <S3: forecast> <tibble [112 x 7]>

We can unnest the “sweep” column to get the results of all three models.

models_tbl_fcast_tidy %>%
    unnest(sweep)

## # A tibble: 336 x 8
##             f       date    key price lo.80 lo.95 hi.80 hi.95
##         <chr>     <date>  <chr> <dbl> <dbl> <dbl> <dbl> <dbl>
##  1 auto.arima 1990-09-01 actual 1.258    NA    NA    NA    NA
##  2 auto.arima 1990-12-01 actual 1.324    NA    NA    NA    NA
##  3 auto.arima 1991-03-01 actual 1.040    NA    NA    NA    NA
##  4 auto.arima 1991-06-01 actual 1.128    NA    NA    NA    NA
##  5 auto.arima 1991-09-01 actual 1.109    NA    NA    NA    NA
##  6 auto.arima 1991-12-01 actual 1.076    NA    NA    NA    NA
##  7 auto.arima 1992-03-01 actual 1.013    NA    NA    NA    NA
##  8 auto.arima 1992-06-01 actual 1.145    NA    NA    NA    NA
##  9 auto.arima 1992-09-01 actual 1.122    NA    NA    NA    NA
## 10 auto.arima 1992-12-01 actual 1.078    NA    NA    NA    NA
## # ... with 326 more rows
…
